%YAML 1.1
%TAG !u! tag:unity3d.com,2011:
--- !u!74 &7400000
AnimationClip:
  m_ObjectHideFlags: 0
  m_CorrespondingSourceObject: {fileID: 0}
  m_PrefabInstance: {fileID: 0}
  m_PrefabAsset: {fileID: 0}
  m_Name: Dragon
  serializedVersion: 6
  m_Legacy: 0
  m_Compressed: 0
  m_UseHighQualityCurve: 1
  m_RotationCurves: []
  m_CompressedRotationCurves: []
  m_EulerCurves: []
  m_PositionCurves: []
  m_ScaleCurves: []
  m_FloatCurves: []
  m_PPtrCurves:
  - curve:
    - time: 0
      value: {fileID: 21300000, guid: ea5705bebb1a5104ba3201bc782bc7bc, type: 3}
    - time: 0.083333336
      value: {fileID: 21300000, guid: 605e6b10a3e6dc64480cffe88cb47d35, type: 3}
    - time: 0.16666667
      value: {fileID: 21300000, guid: e2f035654759a804dabb1edb3c34f441, type: 3}
    - time: 0.25
      value: {fileID: 21300000, guid: e205f3503434e1148acafdbd2a3f5290, type: 3}
    - time: 0.33333334
      value: {fileID: 21300000, guid: ea5705bebb1a5104ba3201bc782bc7bc, type: 3}
    - time: 0.41666666
      value: {fileID: 21300000, guid: 605e6b10a3e6dc64480cffe88cb47d35, type: 3}
    - time: 0.5
      value: {fileID: 21300000, guid: e2f035654759a804dabb1edb3c34f441, type: 3}
    - time: 0.5833333
      value: {fileID: 21300000, guid: e205f3503434e1148acafdbd2a3f5290, type: 3}
    - time: 0.6666667
      value: {fileID: 21300000, guid: ea5705bebb1a5104ba3201bc782bc7bc, type: 3}
    - time: 0.75
      value: {fileID: 21300000, guid: 605e6b10a3e6dc64480cffe88cb47d35, type: 3}
    - time: 0.8333333
      value: {fileID: 21300000, guid: e2f035654759a804dabb1edb3c34f441, type: 3}
    - time: 0.9166667
      value: {fileID: 21300000, guid: e205f3503434e1148acafdbd2a3f5290, type: 3}
    - time: 1
      value: {fileID: 21300000, guid: 64cc1a81ec9463c409e0fe8523d27cf3, type: 3}
    - time: 1.1666666
      value: {fileID: 21300000, guid: 532c98fafd90cd3418313c7f637cb63d, type: 3}
    - time: 1.3333334
      value: {fileID: 21300000, guid: 73349be88b5649245892ed081ca92102, type: 3}
    attribute: m_Sprite
    path: 
    classID: 212
    script: {fileID: 0}
  m_SampleRate: 12
  m_WrapMode: 0
  m_Bounds:
    m_Center: {x: 0, y: 0, z: 0}
    m_Extent: {x: 0, y: 0, z: 0}
  m_ClipBindingConstant:
    genericBindings:
    - serializedVersion: 2
      path: 0
      attribute: 0
      script: {fileID: 0}
      typeID: 212
      customType: 23
      isPPtrCurve: 1
    pptrCurveMapping:
    - {fileID: 21300000, guid: ea5705bebb1a5104ba3201bc782bc7bc, type: 3}
    - {fileID: 21300000, guid: 605e6b10a3e6dc64480cffe88cb47d35, type: 3}
    - {fileID: 21300000, guid: e2f035654759a804dabb1edb3c34f441, type: 3}
    - {fileID: 21300000, guid: e205f3503434e1148acafdbd2a3f5290, type: 3}
    - {fileID: 21300000, guid: ea5705bebb1a5104ba3201bc782bc7bc, type: 3}
    - {fileID: 21300000, guid: 605e6b10a3e6dc64480cffe88cb47d35, type: 3}
    - {fileID: 21300000, guid: e2f035654759a804dabb1edb3c34f441, type: 3}
    - {fileID: 21300000, guid: e205f3503434e1148acafdbd2a3f5290, type: 3}
    - {fileID: 21300000, guid: ea5705bebb1a5104ba3201bc782bc7bc, type: 3}
    - {fileID: 21300000, guid: 605e6b10a3e6dc64480cffe88cb47d35, type: 3}
    - {fileID: 21300000, guid: e2f035654759a804dabb1edb3c34f441, type: 3}
    - {fileID: 21300000, guid: e205f3503434e1148acafdbd2a3f5290, type: 3}
    - {fileID: 21300000, guid: 64cc1a81ec9463c409e0fe8523d27cf3, type: 3}
    - {fileID: 21300000, guid: 532c98fafd90cd3418313c7f637cb63d, type: 3}
    - {fileID: 21300000, guid: 73349be88b5649245892ed081ca92102, type: 3}
  m_AnimationClipSettings:
    serializedVersion: 2
    m_AdditiveReferencePoseClip: {fileID: 0}
    m_AdditiveReferencePoseTime: 0
    m_StartTime: 0
    m_StopTime: 1.4166667
    m_OrientationOffsetY: 0
    m_Level: 0
    m_CycleOffset: 0
    m_HasAdditiveReferencePose: 0
    m_LoopTime: 1
    m_LoopBlend: 0
    m_LoopBlendOrientation: 0
    m_LoopBlendPositionY: 0
    m_LoopBlendPositionXZ: 0
    m_KeepOriginalOrientation: 0
    m_KeepOriginalPositionY: 1
    m_KeepOriginalPositionXZ: 0
    m_HeightFromFeet: 0
    m_Mirror: 0
  m_EditorCurves: []
  m_EulerEditorCurves: []
  m_HasGenericRootTransform: 0
  m_HasMotionFloatCurves: 0
  m_Events: []
